{
  "title": "எளிய தமிழில் GIT",
  "description": "தமிழில் GIT கற்றுக்கொள்வோம் இலவசமாய் ",
  "difficulty": "Beginner",
  "time": "20 minutes",
  "details": {
    "steps": [
      {
        "title": "Step 1",
        "text": "step1.md"
      },
      {
        "title": "Step 2",
        "text": "step2.md"
      },
      {
        "title": "Step 3",
        "text": "step3.md"
      }
    ],
    "intro": {
      "text": "intro.md"
    },
    "finish": {
      "text": "finish.md"
    }
  },
  "environment": {
    "uilayout": "terminal"
  },
  "backend": {
    "imageid": "git"
  }
}